…
**Multiple column selection**

💡 *Use case:* Extracting basic demographic and diagnosis data for a summary table.

```r
basic_info <- df |> select(Name, Age, Diagnosis)
print(basic_info)
```

Output:

```r
# A tibble: 100 × 3
   Name         Age Diagnosis   
   <chr>      <dbl> <chr>       
 1 Patient_1     66 Diabetes    
 2 Patient_2     54 Hypertension
 3 Patient_3     18 Diabetes    
 4 Patient_4     42 Hypertension
 5 Patient_5     27 Healthy     
 6 Patient_6     53 Diabetes    
 7 Patient_7     35 Diabetes    
 8 Patient_8     75 Healthy     
 9 Patient_9     66 Hypertension
10 Patient_10    64 Hypertension
# ℹ 90 more rows
# ℹ Use `print(n = ...)` to see more rows
```
**Column selection by type**

💡 *Use case:* Identifying all numeric variables (e.g., blood pressure, glucose) for statistical analysis.

```r
numeric_columns <- df |> select(where(is.numeric))
cat(\"Numeric columns:\", paste(names(numeric_columns), collapse = \", \"), \"\n\")
print(numeric_columns)
```
" %}

Output:

```r
# A tibble: 100 × 4
   Patient_ID   Age Blood_Pressure Glucose
        <dbl> <dbl>          <dbl>   <dbl>
 1          1    66            153     120
 2          2    54            130      79
 3          3    18            142     190
 4          4    42            151     158
 5          5    27            180     106
 6          6    53            158      96
 7          7    35            126     115
 8          8    75            129     100
 9          9    66            151     160
10         10    64            174     169
# ℹ 90 more rows
# ℹ Use `print(n = ...)` to see more rows
```
…
```r
high_glucose          <- df |> filter(Glucose > 150)
hypertensive_patients <- df |> filter(Diagnosis == \"Hypertension\")

print(high_glucose)
print(hypertensive_patients)

cat(\"High glucose patients:\",    nrow(high_glucose),          \"\n\") # High glucose patients: 43
cat(\"Hypertensive patients:\",    nrow(hypertensive_patients), \"\n\") # Hypertensive patients: 41
```

High-glucose patients:

```r
# A tibble: 43 × 7
   Patient_ID Name         Age Diagnosis    Blood_Pressure Glucose Admission_Date
        <dbl> <chr>      <dbl> <chr>                 <dbl>   <dbl> <date>        
 1          3 Patient_3     18 Diabetes                142     190 2024-01-15    
 2          4 Patient_4     42 Hypertension            151     158 2024-01-22    
 3          9 Patient_9     66 Hypertension            151     160 2024-02-26    
 4         10 Patient_10    64 Hypertension            174     169 2024-03-04    
 5         11 Patient_11    41 Healthy                 180     189 2024-03-11    
 6         14 Patient_14    42 Hypertension            161     192 2024-04-01    
 7         15 Patient_15    54 Healthy                 112     161 2024-04-08    
 8         17 Patient_17    37 Diabetes                148     162 2024-04-22    
 9         20 Patient_20    64 Diabetes                116     165 2024-05-13    
10         21 Patient_21    20 Diabetes                132     171 2024-05-20    
# ℹ 33 more rows
# ℹ Use `print(n = ...)` to see more rows
```

Hypertensive patients:

```r
# A tibble: 41 × 7
   Patient_ID Name         Age Diagnosis    Blood_Pressure Glucose Admission_Date
        <dbl> <chr>      <dbl> <chr>                 <dbl>   <dbl> <date>        
 1          2 Patient_2     54 Hypertension            130      79 2024-01-08    
 2          4 Patient_4     42 Hypertension            151     158 2024-01-22    
 3          9 Patient_9     66 Hypertension            151     160 2024-02-26    
 4         10 Patient_10    64 Hypertension            174     169 2024-03-04    
 5         14 Patient_14    42 Hypertension            161     192 2024-04-01    
 6         16 Patient_16    63 Hypertension            162     102 2024-04-15    
 7         22 Patient_22    58 Hypertension            127     177 2024-05-27    
 8         25 Patient_25    53 Hypertension            107      99 2024-06-17    
 9         28 Patient_28    62 Hypertension            112      97 2024-07-08    
10         31 Patient_31    51 Hypertension            129      78 2024-07-29    
# ℹ 31 more rows
# ℹ Use `print(n = ...)` to see more rows
```
…
Recent admissions:

```r
# A tibble: 78 × 7
   Patient_ID Name         Age Diagnosis    Blood_Pressure Glucose Admission_Date
        <dbl> <chr>      <dbl> <chr>                 <dbl>   <dbl> <date>        
 1         23 Patient_23    42 Healthy                 101      74 2024-06-03    
 2         24 Patient_24    44 Diabetes                130     191 2024-06-10    
 3         25 Patient_25    53 Hypertension            107      99 2024-06-17    
 4         26 Patient_26    54 Diabetes                179     123 2024-06-24    
 5         27 Patient_27    48 Healthy                 102      71 2024-07-01    
 6         28 Patient_28    62 Hypertension            112      97 2024-07-08    
 7         29 Patient_29    22 Diabetes                111     200 2024-07-15    
 8         30 Patient_30    37 Diabetes                164     180 2024-07-22    
 9         31 Patient_31    51 Hypertension            129      78 2024-07-29    
10         32 Patient_32    45 Diabetes                150     123 2024-08-05    
# ℹ 68 more rows
# ℹ Use `print(n = ...)` to see more rows
```
**Using `%in%` for multiple values**

💡 *Use case:* Selecting patients with comorbidities.

```r
target_conditions <- df |> filter(Diagnosis %in% c(\"Diabetes\", \"Hypertension\"))
cat(\"Patients with Diabetes or Hypertension:\", nrow(target_conditions), \"\n\")

# Output
# Patients with Diabetes or Hypertension: 77 
print(target_conditions)
```

```r
# A tibble: 77 × 7
   Patient_ID Name         Age Diagnosis    Blood_Pressure Glucose Admission_Date
        <dbl> <chr>      <dbl> <chr>                 <dbl>   <dbl> <date>        
 1          1 Patient_1     66 Diabetes                153     120 2024-01-01    
 2          2 Patient_2     54 Hypertension            130      79 2024-01-08    
 3          3 Patient_3     18 Diabetes                142     190 2024-01-15    
 4          4 Patient_4     42 Hypertension            151     158 2024-01-22    
 5          6 Patient_6     53 Diabetes                158      96 2024-02-05    
 6          7 Patient_7     35 Diabetes                126     115 2024-02-12    
 7          9 Patient_9     66 Hypertension            151     160 2024-02-26    
 8         10 Patient_10    64 Hypertension            174     169 2024-03-04    
 9         12 Patient_12    24 Diabetes                172     122 2024-03-18    
10         13 Patient_13    53 Diabetes                116      93 2024-03-25    
# ℹ 67 more rows
# ℹ Use `print(n = ...)` to see more rows
```

**String operations**

💡 *Use case:* Useful for data cleaning or searching names.

```r
patients_with_a <- df |> filter(grepl(\"a\", Name, ignore.case = TRUE))
cat(\"Patients with 'a' in name:\", nrow(patients_with_a), \"\n\")       # Patients with 'a' in name: 100

print(patients_with_a)
```

```r
# A tibble: 100 × 7
   Patient_ID Name         Age Diagnosis    Blood_Pressure Glucose Admission_Date
        <dbl> <chr>      <dbl> <chr>                 <dbl>   <dbl> <date>        
 1          1 Patient_1     66 Diabetes                153     120 2024-01-01    
 2          2 Patient_2     54 Hypertension            130      79 2024-01-08    
 3          3 Patient_3     18 Diabetes                142     190 2024-01-15    
 4          4 Patient_4     42 Hypertension            151     158 2024-01-22    
 5          5 Patient_5     27 Healthy                 180     106 2024-01-29    
 6          6 Patient_6     53 Diabetes                158      96 2024-02-05    
 7          7 Patient_7     35 Diabetes                126     115 2024-02-12    
 8          8 Patient_8     75 Healthy                 129     100 2024-02-19    
 9          9 Patient_9     66 Hypertension            151     160 2024-02-26    
10         10 Patient_10    64 Hypertension            174     169 2024-03-04    
# ℹ 90 more rows
# ℹ Use `print(n = ...)` to see more rows
```
…
