…
The result:

```r
Missing data summary:
    Patient_ID  Name  Age  Diagnosis Blood_Pressure  Glucose Admission_Date 
             0     0    0          6              0        6              0 
```

Here's the *new* data frame with missing values:

```r
print(df_with_missing, n = 30)
# A tibble: 100 × 7
   Patient_ID Name         Age Diagnosis    Blood_Pressure Glucose Admission_Date
        <dbl> <chr>      <dbl> <chr>                 <dbl>   <dbl> <date>        
 1          1 Patient_1     66 Diabetes                153     120 2024-01-01    
 2          2 Patient_2     54 Hypertension            130      79 2024-01-08    
 3          3 Patient_3     18 Diabetes                142     190 2024-01-15    
 4          4 Patient_4     42 Hypertension            151     158 2024-01-22    
 5          5 Patient_5     27 Healthy                 180     106 2024-01-29    
 6          6 Patient_6     53 Diabetes                158      NA 2024-02-05    
 7          7 Patient_7     35 Diabetes                126      NA 2024-02-12    
 8          8 Patient_8     75 Healthy                 129      NA 2024-02-19    
 9          9 Patient_9     66 Hypertension            151      NA 2024-02-26    
10         10 Patient_10    64 Hypertension            174      NA 2024-03-04    
11         11 Patient_11    41 Healthy                 180      NA 2024-03-11    
12         12 Patient_12    24 Diabetes                172     122 2024-03-18    
13         13 Patient_13    53 Diabetes                116      93 2024-03-25    
14         14 Patient_14    42 Hypertension            161     192 2024-04-01    
15         15 Patient_15    54 Healthy                 112     161 2024-04-08    
16         16 Patient_16    63 NA                      162     102 2024-04-15    
17         17 Patient_17    37 NA                      148     162 2024-04-22    
18         18 Patient_18    43 NA                      160     105 2024-04-29    
19         19 Patient_19    67 NA                      100     114 2024-05-06    
20         20 Patient_20    64 NA                      116     165 2024-05-13    
21         21 Patient_21    20 NA                      132     171 2024-05-20    
22         22 Patient_22    58 Hypertension            127     177 2024-05-27    
23         23 Patient_23    42 Healthy                 101      74 2024-06-03    
24         24 Patient_24    44 Diabetes                130     191 2024-06-10    
25         25 Patient_25    53 Hypertension            107      99 2024-06-17    
26         26 Patient_26    54 Diabetes                179     123 2024-06-24    
27         27 Patient_27    48 Healthy                 102      71 2024-07-01    
28         28 Patient_28    62 Hypertension            112      97 2024-07-08    
29         29 Patient_29    22 Diabetes                111     200 2024-07-15    
30         30 Patient_30    37 Diabetes                164     180 2024-07-22    
# ℹ 70 more rows
# ℹ Use `print(n = ...)` to see more rows
```
…
